{
    "parent": "minecraft:block/template_daylight_detector",
    "textures": {
      "particle": "minecraft:block/sculk_catalyst_side",
      "side": "minecraft:block/sculk_catalyst_side",
      "bottom": "minecraft:block/sculk_catalyst_bottom",
      "top": "minecraft:block/sculk_shrieker_inner_top"
    },
    "elements": [
      {
        "from": [0, 0, 0],
        "to": [16, 6, 16],
        "faces": {
          "down": {
            "texture": "#bottom"
          },
          "up": {
            "texture": "#top"
          },
          "north": {
            "texture": "#side"
          },
          "south": {
            "texture": "#side"
          },
          "west": {
            "texture": "#side"
          },
          "east": {
            "texture": "#side"
          }
        }
      }
    ]
  }